Date,Time,Terrain,Goal_0_time,Goal_1_time,Goal_2_time,Total_time,Success
24_04_2021,20:42:50,True,27.55,16.55,21.15,65.25,True
24_04_2021,20:53:34,True,30.25,Fail,Fail,330.3,False
24_04_2021,20:57:31,True,36.7,56.8,3.65000000000001,97.15,True
24_04_2021,21:08:57,True,30.2,Fail,Fail,330.25,False
24_04_2021,21:19:08,True,32.9,Fail,Fail,332.95,False
24_04_2021,21:22:43,True,31.3,58.75,18.35,108.4,True
24_04_2021,21:26:15,True,29.7,72.55,7.34999999999999,109.6,True
24_04_2021,21:31:48,True,66.7,33.65,89.45,189.8,True
24_04_2021,21:36:18,True,45.7,45.65,46.85,138.2,True
24_04_2021,21:39:59,True,36.55,21.95,52.6,111.1,True
24_04_2021,21:50:08,True,29.55,Fail,Fail,329.6,False
24_04_2021,21:55:19,True,44.05,41.85,74.15,160.05,True
24_04_2021,22:02:17,True,33.5,179.1,5.04999999999998,217.65,True
24_04_2021,22:12:15,True,36.15,Fail,Fail,336.2,False
24_04_2021,22:26:11,True,38.05,21.95,54.8,114.8,True
24_04_2021,22:29:20,True,31.5,19.05,43.55,94.1,True
25_04_2021,01:57:43,True,27.85,22.9,Fail,350.8,False
25_04_2021,02:07:01,True,26.2,Fail,Fail,326.25,False
25_04_2021,02:14:49,True,190.1,15.2,62.05,267.35,True
25_04_2021,02:16:49,True,180.16,19.3,62.05,261.51,True
25_04_2021,02:17:13,False,29.35,18.8,45.02,93.17,True
25_04_2021,02:23:24,False,26.85,Fail,Fail,326.9,False
25_04_2021,02:26:18,False,30.15,16.65,83.8,130.6,True
25_04_2021,02:32:29,False,27.25,Fail,Fail,327.3,False
25_04_2021,02:39:28,False,38.25,37.45,Fail,375.75,False
25_04_2021,02:46:31,False,32.4,46.05,Fail,378.5,False
25_04_2021,02:53:33,False,33.6,44.4,Fail,378.05,False
25_04_2021,02:59:46,False,30.1,Fail,Fail,330.15,False
25_04_2021,03:06:51,False,36.4,43.95,Fail,380.4,False
25_04_2021,03:13:56,False,33,48.4,Fail,381.45,False
25_04_2021,03:16:22,False,29.1,28.5,44.7,102.3,True
25_04_2021,03:22:36,False,30.5,Fail,Fail,330.55,False
25_04_2021,03:28:50,False,30.7,Fail,Fail,330.75,False
25_04_2021,03:35:04,False,29.4,Fail,Fail,329.45,False
25_04_2021,03:41:18,False,30.1,Fail,Fail,330.15,False
25_04_2021,03:47:55,False,30.2,23.5,Fail,353.75,False
25_04_2021,03:54:10,False,30.7,Fail,Fail,330.75,False
25_04_2021,04:01:15,False,35.75,45.45,Fail,381.25,False
25_04_2021,04:07:29,False,30.2,Fail,Fail,330.25,False
25_04_2021,04:15:23,False,29.9,100,Fail,429.95,False
all wheel,6 wheel,0.1radius,0.8chassis

Average Overall Success Rate,Average Overall Time,Average Overall Time Without Terrain,Average Overall Time Percentage Increase Between Using Terrain And No Terrain,Average Overall Time Increase Between Using A Terrain And No Terrain,Average Time To Test Fail,Average Goal Completion Rate,
90.00%,213.2735,317.571,-32.8422620453379,-104.2975,333.764285714286,2.35,
