Date,Time,Terrain,Goal_0_time,Goal_1_time,Goal_2_time,Total_time,Success
27_04_2021,03:06:08,True,26.95,Fail,Fail,327,False
27_04_2021,03:10:15,True,30.268,16.15,56.2,102.618,True
27_04_2021,03:21:02,True,30.869,Fail,Fail,330.919,False
27_04_2021,03:31:54,True,35.091,Fail,Fail,335.141,False
27_04_2021,03:42:39,True,31.7,Fail,Fail,331.75,False
27_04_2021,03:54:09,True,32.25,27.65,Fail,359.95,False
27_04_2021,03:58:24,True,30.654,21.45,52.6,104.704,True
27_04_2021,04:09:03,True,30.399,Fail,Fail,330.449,False
27_04_2021,04:15:52,True,30.559,150.75,14.35,195.659,True
27_04_2021,04:29:44,True,32.691,109.85,Fail,442.591,False
27_04_2021,04:41:18,True,34.903,26.5,Fail,361.453,False
27_04_2021,04:52:08,True,30.781,Fail,Fail,330.831,False
27_04_2021,05:03:02,True,34.515,Fail,Fail,334.565,False
27_04_2021,05:13:40,True,32.752,Fail,Fail,332.802,False
27_04_2021,05:21:12,True,33.831,17.5,164.7,216.031,True
27_04_2021,05:29:04,True,31.249,28.45,166.65,226.349,True
27_04_2021,05:34:53,True,28.6,23.75,109.75,162.1,True
27_04_2021,05:45:41,True,31.791,Fail,Fail,331.841,False
27_04_2021,05:56:21,True,29.458,Fail,Fail,329.508,False
27_04_2021,06:07:31,True,30.885,15.4,Fail,346.335,False
27_04_2021,06:15:01,False,30,49.6,Fail,379.65,False
27_04_2021,06:17:37,False,25.9,21.65,44.5,92.05,True
27_04_2021,06:25:11,False,28.4,Fail,Fail,328.45,False
27_04_2021,06:32:30,False,32.35,41.25,Fail,373.65,False
27_04_2021,06:41:05,False,32,46.35,Fail,378.4,False
27_04_2021,06:48:34,False,29.95,53.9,Fail,383.9,False
27_04_2021,06:55:58,False,31.4,48,Fail,379.45,False
27_04_2021,07:02:30,False,27.45,Fail,Fail,327.5,False
27_04_2021,07:09:07,False,32.4,Fail,Fail,332.45,False
27_04_2021,07:12:08,False,31.35,82.8,3.25,117.4,True
27_04_2021,07:18:42,False,29.15,Fail,Fail,329.2,False
27_04_2021,07:25:15,False,28.25,Fail,Fail,328.3,False
27_04_2021,07:28:10,False,28.5,76.5,6.54999999999998,111.55,True
27_04_2021,07:30:48,False,26.3,24.05,43.45,93.8,True
27_04_2021,07:37:20,False,27.85,Fail,Fail,327.9,False
27_04_2021,07:44:38,False,31.85,41.5,Fail,373.4,False
27_04_2021,07:52:01,False,31.6,46.45,Fail,378.1,False
27_04_2021,07:55:59,False,28.05,72.45,12.4,112.9,True
27_04_2021,08:01:28,False,33.95,44.87,Fail,378.82,False
27_04_2021,08:03:42,False,30.17,68.45,15.95,114.57,True
all wheel,6 wheel,0.1radius,0.8chassis

Average Overall Success Rate,Average Overall Time,Average Overall Time Without Terrain,Average Overall Time Percentage Increase Between Using Terrain And No Terrain,Average Overall Time Increase Between Using A Terrain And No Terrain,Average Time To Test Fail,Average Goal Completion Rate,
30.00%,291.6298,282.072,3.38842565018862,9.55780000000004,344.6525,1.8,
