Date,Time,Terrain,Goal_0_time,Goal_1_time,Goal_2_time,Total_time,Success
26_04_2021,02:35:16,True,28.5,47.35,Fail,375.9,False
26_04_2021,02:37:55,True,23.4,13.65,9.7,46.75,True
26_04_2021,02:49:02,True,26.9,12.9,Fail,339.85,False
26_04_2021,02:59:31,True,26.893,53.65,Fail,380.593,False
26_04_2021,03:08:36,True,29.589,7.55,Fail,337.189,False
26_04_2021,03:17:01,True,Fail,Fail,Fail,300.05,False
26_04_2021,03:19:29,True,29.9,12.2,11.1,53.2,True
26_04_2021,03:21:49,True,30.358,7.1,11,48.458,True
26_04_2021,03:30:30,True,Fail,Fail,Fail,300.002,False
26_04_2021,03:33:51,True,27.212,7.8,44.45,79.462,True
26_04_2021,03:43:47,True,28,Fail,Fail,328.05,False
26_04_2021,03:54:22,True,22.895,6.8,Fail,329.745,False
26_04_2021,04:05:54,True,26.35,52.4,Fail,378.8,False
26_04_2021,04:18:05,True,27.815,114.3,Fail,442.165,False
26_04_2021,04:26:32,True,Fail,Fail,Fail,300.049,False
26_04_2021,04:36:49,True,28.15,51.75,Fail,379.95,False
26_04_2021,04:39:56,True,28.719,11.9,38.95,79.569,True
26_04_2021,04:48:26,True,Fail,Fail,Fail,300.001,False
26_04_2021,04:51:55,True,26.85,13,42.95,82.8,True
26_04_2021,05:02:17,True,27.805,7.35,Fail,335.205,False
26_04_2021,05:04:12,False,22.75,14.4,9.75,46.9,True
26_04_2021,05:06:03,False,22.75,13.85,10.45,47.05,True
26_04_2021,05:07:52,False,22.8,12.45,10.55,45.8,True
26_04_2021,05:10:09,False,22.35,6.85,44.25,73.45,True
26_04_2021,05:11:59,False,23.85,11.5,10.95,46.3,True
26_04_2021,05:13:48,False,22.55,13.15,10.65,46.35,True
26_04_2021,05:15:38,False,23.15,12.55,10.8,46.5,True
26_04_2021,05:17:28,False,23,12.4,11,46.4,True
26_04_2021,05:19:19,False,23.15,12.7,10.85,46.7,True
26_04_2021,05:21:09,False,23.8,12.45,11,47.25,True
26_04_2021,05:22:53,False,23.25,7.1,10.3,40.65,True
26_04_2021,05:24:37,False,23.25,6.8,10.2,40.25,True
26_04_2021,05:26:26,False,22.5,12.6,10.35,45.45,True
26_04_2021,05:28:15,False,21.9,12.45,10.65,45,True
26_04_2021,05:30:29,False,21.05,6.95,43.1,71.1,True
26_04_2021,05:32:19,False,22.7,12.5,10.9,46.1,True
26_04_2021,05:34:34,False,22.55,7,42.8,72.35,True
26_04_2021,05:36:18,False,22.55,7.05,10.2,39.8,True
26_04_2021,05:38:07,False,22.7,12.55,10.95,46.2,True
26_04_2021,05:39:56,False,22.95,12.05,10.95,45.95,True
all wheel,4 wheel,0.1radius,0.2chassis

Average Overall Success Rate,Average Overall Time,Average Overall Time Without Terrain,Average Overall Time Percentage Increase Between Using Terrain And No Terrain,Average Overall Time Increase Between Using A Terrain And No Terrain,Average Time To Test Fail,Average Goal Completion Rate,
30.00%,273.50965,49.2775,455.039622545787,224.23215,344.824928571429,1.85,
