Date,Time,Terrain,Goal_0_time,Goal_1_time,Goal_2_time,Total_time,Success
26_04_2021,17:26:35,True,150.357,Fail,Fail,450.407,False
26_04_2021,17:34:27,True,Fail,Fail,Fail,300.019,False
26_04_2021,17:48:47,True,180.197,101.05,Fail,581.297,False
26_04_2021,17:58:32,True,35.674,Fail,Fail,335.724,False
26_04_2021,18:07:28,True,Fail,Fail,Fail,300.034,False
26_04_2021,18:19:43,True,100.81,65,266.4,432.21,True
26_04_2021,18:34:14,True,222.71,Fail,Fail,522.76,False
26_04_2021,18:46:03,True,126.897,Fail,Fail,426.947,False
26_04_2021,18:58:35,True,46.754,104.7,Fail,451.504,False
26_04_2021,19:06:25,True,Fail,Fail,Fail,300.028,False
26_04_2021,19:14:25,True,Fail,Fail,Fail,300.05,False
26_04_2021,19:23:15,True,Fail,Fail,Fail,300.05,False
26_04_2021,19:32:27,True,Fail,Fail,Fail,300.038,False
26_04_2021,19:44:15,True,117.778,Fail,Fail,417.828,False
26_04_2021,19:52:48,True,Fail,Fail,Fail,300.006,False
26_04_2021,20:01:58,True,48.148,Fail,Fail,348.198,False
26_04_2021,20:09:53,True,Fail,Fail,Fail,300.02,False
26_04_2021,20:17:49,True,Fail,Fail,Fail,300.05,False
26_04_2021,20:33:08,True,264.849,67.2,Fail,632.099,False
26_04_2021,20:41:46,True,42.291,Fail,Fail,342.341,False
26_04_2021,20:45:22,False,30.75,15.5,101.1,147.35,True
26_04_2021,20:48:43,False,31.75,23.3,83.2,138.25,True
26_04_2021,20:52:22,False,30.9,20.6,103.6,155.1,True
26_04_2021,20:59:19,False,31.45,21.75,Fail,353.25,False
26_04_2021,21:01:45,False,32,17.5,32.85,82.35,True
26_04_2021,21:05:17,False,30.35,23.9,94.7,148.95,True
26_04_2021,21:07:52,False,32.45,21.55,37.9,91.9,True
26_04_2021,21:10:13,False,30.9,14.25,32.15,77.3,True
26_04_2021,21:12:39,False,58.448,24.55,28.15,111.148,True
26_04_2021,21:15:10,False,32.3,19.85,34.8,86.95,True
26_04_2021,21:17:28,False,57.891,18.25,26.8,102.941,True
26_04_2021,21:19:49,False,30.8,14.45,32.5,77.75,True
26_04_2021,21:22:14,False,31.4,21.55,28.75,81.7,True
26_04_2021,21:24:39,False,31.85,20.85,28.9,81.6,True
26_04_2021,21:27:09,False,32.15,20.5,34.1,86.75,True
26_04_2021,21:29:28,False,31.8,13.85,30.45,76.1,True
26_04_2021,21:31:49,False,34.65,16.3,26.3,77.25,True
26_04_2021,21:34:20,False,32.15,22.15,33.55,87.85,True
26_04_2021,21:36:56,False,31.85,25.3,35.5,92.65,True
26_04_2021,21:40:40,False,30.15,18.9,111.7,160.75,True
front wheel,4 wheel,0.1radius,0.2chassis

Average Overall Success Rate,Average Overall Time,Average Overall Time Without Terrain,Average Overall Time Percentage Increase Between Using Terrain And No Terrain,Average Overall Time Increase Between Using A Terrain And No Terrain,Average Time To Test Fail,Average Goal Completion Rate,
5.00%,382.0805,115.89445,229.679721505215,266.18605,379.442105263158,0.8,
