Date,Time,Terrain,Goal_0_time,Goal_1_time,Goal_2_time,Total_time,Success
20_04_2021,21:38:04,TRUE,38.25,7.9,10.1,56.25,True
20_04_2021,21:47:21,TRUE,32.85,7.4,Fail,340.3,False
20_04_2021,21:49:05,TRUE,24.1,6.85,10.95,41.9,True
20_04_2021,21:51:07,TRUE,28.4,13.15,11.2,52.75,True
20_04_2021,21:53:12,TRUE,33.3,7.75,12.5,53.55,True
20_04_2021,21:58:01,TRUE,24.3,100.05,41.6,165.95,True
20_04_2021,22:07:09,TRUE,28.2,7.35,Fail,335.6,False
20_04_2021,22:08:59,TRUE,24.85,7.15000000000001,10.75,42.75,True
20_04_2021,22:19:41,TRUE,26.05,45.35,Fail,371.45,False
20_04_2021,22:21:48,TRUE,34.75,7.8,12.6,55.15,True
20_04_2021,22:23:33,TRUE,23.3,7.40000000000001,10.6,41.3,True
20_04_2021,22:25:32,TRUE,30.8,7.55,10.55,48.9,True
20_04_2021,22:40:37,TRUE,166.85,61.75,Fail,528.65,False
20_04_2021,22:42:37,TRUE,22.45,12.15,10.9,45.5,True
20_04_2021,22:52:53,TRUE,41.35,53.4,258.55,353.3,True
20_04_2021,22:55:55,TRUE,24.35,44.7,23.15,92.2,True
20_04_2021,22:57:44,TRUE,24.9,7.6,11,43.5,True
20_04_2021,23:00:39,TRUE,26.45,55.05,8,89.5,True
20_04_2021,23:09:52,TRUE,24.1,Fail,Fail,324.15,False
20_04_2021,23:12:58,TRUE,29.15,6.85,56.6,92.6,True
20_04_2021,19:22:17,FALSE,23.05,6.9,10.2,40.15,True
20_04_2021,19:23:44,FALSE,22.55,11.15,10.5,44.2,True
20_04_2021,19:25:38,FALSE,22.45,7.15,41.7,71.3,True
20_04_2021,19:27:00,FALSE,21.8,6.75,10.25,38.8,True
20_04_2021,19:28:31,FALSE,23.85,13.7,10.5,48.05,True
20_04_2021,19:29:55,FALSE,23.75,7.05,10.55,41.35,True
20_04_2021,19:31:23,FALSE,22.35,13.3,9.95,45.6,True
20_04_2021,19:32:55,FALSE,23.95,13.55,10.8,48.3,True
20_04_2021,19:34:18,FALSE,23,6.95,10.55,40.5,True
20_04_2021,19:35:41,FALSE,22.8,7.05,10.5,40.35,True
20_04_2021,19:37:12,FALSE,24.3,12.6,11,47.9,True
20_04_2021,19:38:42,FALSE,23,13.9,10.3,47.2,True
20_04_2021,19:40:11,FALSE,22.25,13.15,10.75,46.15,True
20_04_2021,19:41:35,FALSE,23,6.9,10.45,40.35,True
20_04_2021,19:43:30,FALSE,22.8,6.9,42.45,72.15,True
20_04_2021,19:44:53,FALSE,22.5,7.3,10.15,39.95,True
20_04_2021,19:46:16,FALSE,22.9,7.25,10.05,40.2,True
20_04_2021,19:47:45,FALSE,22.9,13,10.8,46.7,True
20_04_2021,19:49:40,FALSE,22.75,6.95,41.75,71.45,True
20_04_2021,19:51:11,FALSE,23.9,13.7,10.6,48.2,True
all wheel,4 wheel,0.1radius,0.2chassis,

Average Overall Success Rate,Average Overall Time,Average Overall Time Without Terrain,Average Overall Time Percentage Increase Between Using Terrain And No Terrain,Average Overall Time Increase Between Using A Terrain And No Terrain,Average Time To Test Fail,Average Goal Completion Rate,
75.00%,158.7625,47.9425,231.151900714397,110.82,380.03,2.7,
