Date,Time,Terrain,Goal_0_time,Goal_1_time,Goal_2_time,Total_time,Success
24_04_2021,14:50:00,True,Fail,Fail,Fail,300.05,False
24_04_2021,14:58:08,True,Fail,Fail,Fail,300.05,False
24_04_2021,15:05:55,True,Fail,Fail,Fail,300.05,False
24_04_2021,15:14:39,True,Fail,Fail,Fail,300.05,False
24_04_2021,15:22:44,True,Fail,Fail,Fail,300.05,False
24_04_2021,15:31:25,True,Fail,Fail,Fail,300.05,False
24_04_2021,15:40:04,True,Fail,Fail,Fail,300.05,False
24_04_2021,15:52:12,True,167.95,Fail,Fail,468,False
24_04_2021,15:59:50,True,Fail,Fail,Fail,300.05,False
24_04_2021,16:07:57,True,Fail,Fail,Fail,300.05,False
24_04_2021,16:16:26,True,Fail,Fail,Fail,300.05,False
24_04_2021,16:24:44,True,Fail,Fail,Fail,300.05,False
24_04_2021,16:32:33,True,Fail,Fail,Fail,300.05,False
24_04_2021,16:40:19,True,Fail,Fail,Fail,300.05,False
24_04_2021,16:48:00,True,Fail,Fail,Fail,300.05,False
24_04_2021,16:56:08,True,Fail,Fail,Fail,300.05,False
24_04_2021,17:03:34,True,Fail,Fail,Fail,300.05,False
24_04_2021,17:11:45,True,Fail,Fail,Fail,300.05,False
24_04_2021,17:19:19,True,Fail,Fail,Fail,300.05,False
24_04_2021,17:27:49,True,Fail,Fail,Fail,300.05,False
24_04_2021,17:33:38,False,Fail,Fail,Fail,300.05,False
24_04_2021,17:39:22,False,Fail,Fail,Fail,300.05,False
24_04_2021,17:45:05,False,Fail,Fail,Fail,300.05,False
24_04_2021,17:50:49,False,Fail,Fail,Fail,300.05,False
24_04_2021,17:56:33,False,Fail,Fail,Fail,300.05,False
24_04_2021,18:02:16,False,Fail,Fail,Fail,300.05,False
24_04_2021,18:08:00,False,Fail,Fail,Fail,300.05,False
24_04_2021,18:13:44,False,Fail,Fail,Fail,300.05,False
24_04_2021,18:19:27,False,Fail,Fail,Fail,300.05,False
24_04_2021,18:25:11,False,Fail,Fail,Fail,300.05,False
24_04_2021,18:30:55,False,Fail,Fail,Fail,300.05,False
24_04_2021,18:36:38,False,Fail,Fail,Fail,300.05,False
24_04_2021,18:42:22,False,Fail,Fail,Fail,300.05,False
24_04_2021,18:48:06,False,Fail,Fail,Fail,300.05,False
24_04_2021,18:53:50,False,Fail,Fail,Fail,300.05,False
24_04_2021,18:59:33,False,Fail,Fail,Fail,300.05,False
24_04_2021,19:05:17,False,Fail,Fail,Fail,300.05,False
24_04_2021,19:11:01,False,Fail,Fail,Fail,300.05,False
24_04_2021,19:16:45,False,Fail,Fail,Fail,300.05,False
24_04_2021,19:22:28,False,Fail,Fail,Fail,300.05,False
rear wheel,6 wheel,0.1radius,0.4chassis

Average Overall Success Rate,Average Overall Time,Average Overall Time Without Terrain,Average Overall Time Percentage Increase Between Using Terrain And No Terrain,Average Overall Time Increase Between Using A Terrain And No Terrain,Average Time To Test Fail,Average Goal Completion Rate,
0.00%,308.4475,300.05,2.79870021663057,8.39750000000004,308.4475,0.05,
